{
    "$schema": "https://themost-framework.github.io/themost/models/2018/2/schema.json",
    "@id": "https://universis.io/schemas/OneRosterInstituteLink",
    "name": "OneRosterInstituteLink",
    "title": "OneRosterInstituteLink",
    "abstract": false,
    "hidden": false,
    "sealed": false,
    "version": "2.0.0",
    "fields": [
        {
            "@id": "http://universis.io/id",
            "name": "id",
            "type": "Guid",
            "primary": true,
            "nullable": false,
            "value": "javascript:return require('@themost/common').Guid.newGuid().toString();"
        },
        {
            "@id": "http://www.imsglobal.org/sourcedId",
            "name": "sourcedId",
            "type": "Guid",
            "nullable": false
        },
        {
            "@id": "http://www.imsglobal.org/href",
            "name": "href",
            "type": "Text",
            "nullable": false,
            "size": 512
        },
        {
            "@id": "http://www.imsglobal.org/ name",
            "name": "name",
            "type": "Text",
            "nullable": false
        },
        {
            "@id": "https://universis.io/institute",
            "name": "institute",
            "title": "Institute",
            "description": "The associated institute",
            "type": "Institute",
            "nullable": false
        }
    ],
    "constraints": [
        {
            "type": "unique",
            "fields": [
                "institute"
            ]
        }
    ],
    "privileges": [
        {
            "mask": 1,
            "type": "global",
            "account": "*"
        },
        {
            "mask": 15,
            "type": "global"
        },
        {
          "mask": 15,
          "type": "global",
          "account": "Administrators"
        },
        {
            "mask": 15,
            "type": "global",
            "account": "OneRosterAdmins"
        },
        {
            "mask": 15,
            "type": "global",
            "account": "OneRosterAdmins"
        }
    ]
}