{
    "$schema": "https://themost-framework.github.io/themost/models/2018/2/schema.json",
    "@id": "https://universis.io/schemas/OneRosterServiceProvider",
    "name": "OneRosterServiceProvider",
    "title": "OneRosterServiceProvider",
    "abstract": false,
    "hidden": false,
    "sealed": false,
    "version": "2.0.0",
    "inherits": "ServiceProvider",
    "fields": [
    ],
    "privileges": [
        {
            "mask": 15,
            "type": "global"
        },
        {
          "mask": 15,
          "type": "global",
          "account": "Administrators"
        },
        {
            "mask": 15,
            "type": "global",
            "account": "OneRosterAdmins"
        }
    ]
}