{
    "$schema": "https://themost-framework.github.io/themost/models/2018/2/schema.json",
    "@id": "http://www.imsglobal.org/IncomingCourse",
    "name": "OneRosterIncomingCourse",
    "alternateName": "incomingCourse",
    "collectionName": "incomingCourses",
    "title": "OneRosterIncomingCourse",
    "abstract": false,
    "hidden": false,
    "sealed": false,
    "version": "2.0.0",
    "implements": "OneRosterBaseType",
    "fields": [
        {
            "@id": "http://www.imsglobal.org/title",
            "name": "title",
            "description": "The name of the course",
            "type": "Text",
            "nullable": false
        },
        {
            "@id": "http://www.imsglobal.org/schoolYear",
            "name": "schoolYear",
            "description": "The school year during which the course is offered",
            "type": "OneRosterAcademicSession",
            "nullable": true
        },
        {
            "@id": "http://www.imsglobal.org/classCode",
            "name": "courseCode",
            "description": "The code that uniquely identifies the course",
            "type": "Text",
            "nullable": true,
            "size": 24
        },
        {
            "@id": "http://www.imsglobal.org/subjects",
            "name": "subjects",
            "description": "The subjects of the course",
            "type": "Text",
            "many": true,
            "mapping": {
                "associationAdapter": "OneRosterCourseSubjects",
                "associationType": "junction",
                "associationObjectField": "object",
                "associationValueField": "value",
                "cascade": "delete"
            }
        },
        {
            "@id": "http://www.imsglobal.org/org",
            "name": "org",
            "description": "The organization that owns the course",
            "type": "OneRosterIncomingOrg",
            "nullable": true,
            "expandable": true,
            "mapping": {
                "options": {
                    "$select": "sourcedId,baseType as type,href"
                }
            }
        },
        {
            "@id": "http://www.imsglobal.org/subjectCodes",
            "name": "subjectCodes",
            "description": "The subject codes of the course",
            "type": "Text",
            "many": true,
            "mapping": {
                "associationAdapter": "OneRosterCourseSubjectCodes",
                "associationType": "junction",
                "associationObjectField": "object",
                "associationValueField": "value",
                "cascade": "delete"
            }
        },
        {
            "@id": "http://www.imsglobal.org/resources",
            "name": "resources",
            "description": "The resources associated with the course",
            "type": "OneRosterResource",
            "many": true,
            "nested": true,
            "mapping": {
                "associationAdapter": "OneRosterCourseResources",
                "associationType": "junction",
                "associationObjectField": "object",
                "associationValueField": "value",
                "cascade": "delete"
            }
        },
        {
            "@id": "http://www.imsglobal.org/metadata",
            "name": "metadata",
            "description": "The metadata associated with the course",
            "type": "OneRosterIncomingCourseMetadata",
            "nested": true,
            "many": true,
            "expandable": true,
            "multiplicity": "ZeroOrOne",
            "mapping": {
                "parentModel": "OneRosterIncomingCourse",
                "parentField": "sourcedId",
                "childModel": "OneRosterIncomingCourseMetadata",
                "childField": "course",
                "associationType": "association",
                "cascade": "delete"
            }
        }
    ],
    "constraints": [
        {
            "type": "unique",
            "fields": [
                "courseCode"
            ]
        }
    ],
    "privileges": [
        {
            "mask": 1,
            "type": "global",
            "account": "*"
          },
        {
            "mask": 15,
            "type": "global"
        },
        {
            "mask": 15,
            "type": "global",
            "account": "Administrators"
        },
        {
            "mask": 15,
            "type": "global",
            "account": "OneRosterAdmins"
        }
    ]
}
